soc_ref_cat_analysis_2
…
      return(this_trial)
    })
  
  ## now here's where data get bound togetherq
  all_data <- bind_rows(all_data, d_trial)
}

## [1] "020218_01-eye_data Samples.txt"
## # A tibble: 28 x 15
##    SID       trial onset offset chosen_side camera_onset webcam_onset
##    <chr>     <int> <dbl>  <dbl> <chr>              <dbl>        <dbl>
##  1 020218_01     1   192    196 R                   70.9          109
##  2 020218_01     2   198    203 R                   70.9          109
##  3 020218_01     3   205    211 R                   70.9          109
##  4 020218_01     4   213    215 R                   70.9          109
##  5 020218_01     5   217    221 R                   70.9          109
##  6 020218_01     6   223    225 R                   70.9          109
##  7 020218_01     7   227    229 R                   70.9          109
##  8 020218_01     8   269    272 L                   70.9          109
##  9 020218_01     9   273    276 L                   70.9          109
## 10 020218_01    10   278    280 L                   70.9          109
## # ... with 18 more rows, and 8 more variables: camera_lag <dbl>,
## #   webcam_length <dbl>, Condition <int>, Morph <int>, x_or_y <chr>,
## #   correct_side <chr>, accuracy <lgl>, age <dbl>
…
## [1] "020218_02-eye_data Samples.txt"
## # A tibble: 28 x 15
##    SID       trial onset offset chosen_side camera_onset webcam_onset
##    <chr>     <int> <dbl>  <dbl> <chr>              <dbl>        <dbl>
##  1 020218_02     1   156    158 L                    157         34.5
##  2 020218_02     2   160    163 R                    157         34.5
##  3 020218_02     3   165    168 R                    157         34.5
##  4 020218_02     4   169    173 L                    157         34.5
##  5 020218_02     5   175    178 R                    157         34.5
##  6 020218_02     6   180    183 L                    157         34.5
##  7 020218_02     7   184    187 R                    157         34.5
##  8 020218_02     8   231    239 L                    157         34.5
##  9 020218_02     9   241    245 R                    157         34.5
## 10 020218_02    10   247    249 L                    157         34.5
## # ... with 18 more rows, and 8 more variables: camera_lag <dbl>,
## #   webcam_length <dbl>, Condition <int>, Morph <int>, x_or_y <chr>,
## #   correct_side <chr>, accuracy <lgl>, age <dbl>
…
## [1] "020918_01-eye_data Samples.txt"
## # A tibble: 28 x 15
##    SID       trial onset offset chosen_side camera_onset webcam_onset
##    <chr>     <int> <dbl>  <dbl> <chr>              <dbl>        <dbl>
##  1 020918_01     1   184    188 L                   88.8         28.9
##  2 020918_01     2   190    192 R                   88.8         28.9
##  3 020918_01     3   194    196 L                   88.8         28.9
##  4 020918_01     4   199    205 R                   88.8         28.9
##  5 020918_01     5   208    213 L                   88.8         28.9
##  6 020918_01     6   215    220 R                   88.8         28.9
##  7 020918_01     7   222    225 L                   88.8         28.9
##  8 020918_01     8   284    287 R                   88.8         28.9
##  9 020918_01     9   289    293 L                   88.8         28.9
## 10 020918_01    10   295    298 R                   88.8         28.9
## # ... with 18 more rows, and 8 more variables: camera_lag <dbl>,
## #   webcam_length <dbl>, Condition <int>, Morph <int>, x_or_y <chr>,
## #   correct_side <chr>, accuracy <lgl>, age <dbl>
…
## [1] "020918_02-eye_data Samples.txt"
## # A tibble: 28 x 15
##    SID       trial onset offset chosen_side camera_onset webcam_onset
##    <chr>     <int> <dbl>  <dbl> <chr>              <dbl>        <dbl>
##  1 020918_02     1   176    179 L                    113         41.1
##  2 020918_02     2   181    183 L                    113         41.1
##  3 020918_02     3   186    188 R                    113         41.1
##  4 020918_02     4   189    192 L                    113         41.1
##  5 020918_02     5   194    196 L                    113         41.1
##  6 020918_02     6   198    200 L                    113         41.1
##  7 020918_02     7   202    205 R                    113         41.1
##  8 020918_02     8   243    245 L                    113         41.1
##  9 020918_02     9   247    251 L                    113         41.1
## 10 020918_02    10   252    255 L                    113         41.1
## # ... with 18 more rows, and 8 more variables: camera_lag <dbl>,
## #   webcam_length <dbl>, Condition <int>, Morph <int>, x_or_y <chr>,
## #   correct_side <chr>, accuracy <lgl>, age <dbl>
…
## [1] "021418_01-eye_data Samples.txt"
## # A tibble: 28 x 15
##    SID       trial onset offset chosen_side camera_onset webcam_onset
##    <chr>     <int> <dbl>  <dbl> <chr>              <dbl>        <dbl>
##  1 021418_01     1   160    163 R                    191         74.4
##  2 021418_01     2   165    167 R                    191         74.4
##  3 021418_01     3   171    171 R                    191         74.4
##  4 021418_01     4   173    176 L                    191         74.4
##  5 021418_01     5   178    181 R                    191         74.4
##  6 021418_01     6   183    185 R                    191         74.4
##  7 021418_01     7   187    189 R                    191         74.4
##  8 021418_01     8   240    242 R                    191         74.4
##  9 021418_01     9   244    247 L                    191         74.4
## 10 021418_01    10   249    251 R                    191         74.4
## # ... with 18 more rows, and 8 more variables: camera_lag <dbl>,
## #   webcam_length <dbl>, Condition <int>, Morph <int>, x_or_y <chr>,
## #   correct_side <chr>, accuracy <lgl>, age <dbl>
…
## [1] "021618_02-eye_data Samples.txt"
## # A tibble: 28 x 15
##    SID       trial onset offset chosen_side camera_onset webcam_onset
##    <chr>     <int> <dbl>  <dbl> <chr>              <dbl>        <dbl>
##  1 021618_02     1   200    205 L                    650          579
##  2 021618_02     2   208    213 L                    650          579
##  3 021618_02     3   215    218 R                    650          579
##  4 021618_02     4   221    223 R                    650          579
##  5 021618_02     5   227    230 L                    650          579
##  6 021618_02     6   232    238 L                    650          579
##  7 021618_02     7   240    243 L                    650          579
##  8 021618_02     8   295    301 L                    650          579
##  9 021618_02     9   303    315 R                    650          579
## 10 021618_02    10   318    324 L                    650          579
## # ... with 18 more rows, and 8 more variables: camera_lag <dbl>,
## #   webcam_length <dbl>, Condition <int>, Morph <int>, x_or_y <chr>,
## #   correct_side <chr>, accuracy <lgl>, age <dbl>
…
## [1] "021618_03-eye_data Samples.txt"
## # A tibble: 28 x 15
##    SID       trial onset offset chosen_side camera_onset webcam_onset
##    <chr>     <int> <dbl>  <dbl> <chr>              <dbl>        <dbl>
##  1 021618_03     1   202    218 L                    124         54.7
##  2 021618_03     2   220    229 R                    124         54.7
##  3 021618_03     3   231    241 R                    124         54.7
##  4 021618_03     4   243    249 L                    124         54.7
##  5 021618_03     5   250    254 L                    124         54.7
##  6 021618_03     6   256    259 L                    124         54.7
##  7 021618_03     7   262    265 L                    124         54.7
##  8 021618_03     8   312    329 L                    124         54.7
##  9 021618_03     9   331    339 L                    124         54.7
## 10 021618_03    10   341    345 L                    124         54.7
## # ... with 18 more rows, and 8 more variables: camera_lag <dbl>,
## #   webcam_length <dbl>, Condition <int>, Morph <int>, x_or_y <chr>,
## #   correct_side <chr>, accuracy <lgl>, age <dbl>
…
## [1] "022118_01-eye_data Samples.txt"
## # A tibble: 28 x 15
##    SID       trial onset offset chosen_side camera_onset webcam_onset
##    <chr>     <int> <dbl>  <dbl> <chr>              <dbl>        <dbl>
##  1 022118_01     1   135    137 L                    151         29.2
##  2 022118_01     2   139    141 R                    151         29.2
##  3 022118_01     3   143    146 L                    151         29.2
##  4 022118_01     4   148    150 L                    151         29.2
##  5 022118_01     5   152    154 R                    151         29.2
##  6 022118_01     6   157    159 R                    151         29.2
##  7 022118_01     7   161    164 L                    151         29.2
##  8 022118_01     8   202    204 R                    151         29.2
##  9 022118_01     9   207    210 L                    151         29.2
## 10 022118_01    10   212    215 R                    151         29.2
## # ... with 18 more rows, and 8 more variables: camera_lag <dbl>,
## #   webcam_length <dbl>, Condition <int>, Morph <int>, x_or_y <chr>,
## #   correct_side <chr>, accuracy <lgl>, age <dbl>
…
## [1] "022118_02-eye_data Samples.txt"
## # A tibble: 28 x 15
##    SID       trial onset offset chosen_side camera_onset webcam_onset
##    <chr>     <int> <dbl>  <dbl> <chr>              <dbl>        <dbl>
##  1 022118_02     1   126    132 L                    167          103
##  2 022118_02     2   134    139 R                    167          103
##  3 022118_02     3   142    147 R                    167          103
##  4 022118_02     4   149    151 R                    167          103
##  5 022118_02     5   154    157 L                    167          103
##  6 022118_02     6   159    167 L                    167          103
##  7 022118_02     7   169    176 L                    167          103
##  8 022118_02     8   232    235 L                    167          103
##  9 022118_02     9   237    240 L                    167          103
## 10 022118_02    10   242    244 L                    167          103
## # ... with 18 more rows, and 8 more variables: camera_lag <dbl>,
## #   webcam_length <dbl>, Condition <int>, Morph <int>, x_or_y <chr>,
## #   correct_side <chr>, accuracy <lgl>, age <dbl>
…
## [1] "022818_01-eye_data Samples.txt"
## # A tibble: 28 x 15
##    SID       trial onset offset chosen_side camera_onset webcam_onset
##    <chr>     <int> <dbl>  <dbl> <chr>              <dbl>        <dbl>
##  1 022818_01     1   164    167 R                    113         39.0
##  2 022818_01     2   169    171 R                    113         39.0
##  3 022818_01     3   173    176 L                    113         39.0
##  4 022818_01     4   178    180 L                    113         39.0
##  5 022818_01     5   182    183 R                    113         39.0
##  6 022818_01     6   186    188 R                    113         39.0
##  7 022818_01     7   190    195 L                    113         39.0
##  8 022818_01     8   237    239 R                    113         39.0
##  9 022818_01     9   242    243 L                    113         39.0
## 10 022818_01    10   245    247 R                    113         39.0
## # ... with 18 more rows, and 8 more variables: camera_lag <dbl>,
## #   webcam_length <dbl>, Condition <int>, Morph <int>, x_or_y <chr>,
## #   correct_side <chr>, accuracy <lgl>, age <dbl>
…
## [1] "030218_01-eye_data Samples.txt"
## # A tibble: 28 x 15
##    SID       trial onset offset chosen_side camera_onset webcam_onset
##    <chr>     <int> <dbl>  <dbl> <chr>              <dbl>        <dbl>
##  1 030218_01     1   150    153 L                    196         40.6
##  2 030218_01     2   155    158 R                    196         40.6
##  3 030218_01     3   160    164 R                    196         40.6
##  4 030218_01     4   167    169 R                    196         40.6
##  5 030218_01     5   172    174 L                    196         40.6
##  6 030218_01     6   176    178 R                    196         40.6
##  7 030218_01     7   180    182 R                    196         40.6
##  8 030218_01     8   226    238 R                    196         40.6
##  9 030218_01     9   239    241 R                    196         40.6
## 10 030218_01    10   244    247 R                    196         40.6
## # ... with 18 more rows, and 8 more variables: camera_lag <dbl>,
## #   webcam_length <dbl>, Condition <int>, Morph <int>, x_or_y <chr>,
## #   correct_side <chr>, accuracy <lgl>, age <dbl>
…
## [1] "030218_02-eye_data Samples.txt"
## # A tibble: 28 x 15
##    SID       trial onset offset chosen_side camera_onset webcam_onset
##    <chr>     <int> <dbl>  <dbl> <chr>              <dbl>        <dbl>
##  1 030218_02     1   183    187 L                    114         63.5
##  2 030218_02     2   189    192 R                    114         63.5
##  3 030218_02     3   193    201 L                    114         63.5
##  4 030218_02     4   203    209 L                    114         63.5
##  5 030218_02     5   211    214 R                    114         63.5
##  6 030218_02     6   216    220 R                    114         63.5
##  7 030218_02     7   222    225 L                    114         63.5
##  8 030218_02     8   263    267 R                    114         63.5
##  9 030218_02     9   269    273 L                    114         63.5
## 10 030218_02    10   274    279 L                    114         63.5
## # ... with 18 more rows, and 8 more variables: camera_lag <dbl>,
## #   webcam_length <dbl>, Condition <int>, Morph <int>, x_or_y <chr>,
## #   correct_side <chr>, accuracy <lgl>, age <dbl>
…
## [1] "041718_01-eye_data Samples.txt"
## # A tibble: 28 x 15
##    SID       trial onset offset chosen_side camera_onset webcam_onset
##    <chr>     <int> <dbl>  <dbl> <chr>              <dbl>        <dbl>
##  1 041718_01     1   206    209 L                    252         44.8
##  2 041718_01     2   211    215 L                    252         44.8
##  3 041718_01     3   217    220 R                    252         44.8
##  4 041718_01     4   222    226 R                    252         44.8
##  5 041718_01     5   228    233 L                    252         44.8
##  6 041718_01     6   235    238 L                    252         44.8
##  7 041718_01     7   240    243 R                    252         44.8
##  8 041718_01     8   310    313 R                    252         44.8
##  9 041718_01     9   314    322 R                    252         44.8
## 10 041718_01    10   324    327 L                    252         44.8
## # ... with 18 more rows, and 8 more variables: camera_lag <dbl>,
## #   webcam_length <dbl>, Condition <int>, Morph <int>, x_or_y <chr>,
## #   correct_side <chr>, accuracy <lgl>, age <dbl>
…
## [1] "041718_02-eye_data Samples.txt"
## # A tibble: 28 x 15
##    SID       trial onset offset chosen_side camera_onset webcam_onset
##    <chr>     <int> <dbl>  <dbl> <chr>              <dbl>        <dbl>
##  1 041718_02     1   178    186 L                    278          209
##  2 041718_02     2   188    191 R                    278          209
##  3 041718_02     3   193    195 R                    278          209
##  4 041718_02     4   197    199 R                    278          209
##  5 041718_02     5   201    203 L                    278          209
##  6 041718_02     6   205    207 R                    278          209
##  7 041718_02     7   208    213 R                    278          209
##  8 041718_02     8   259    262 R                    278          209
##  9 041718_02     9   264    266 R                    278          209
## 10 041718_02    10   268    271 R                    278          209
## # ... with 18 more rows, and 8 more variables: camera_lag <dbl>,
## #   webcam_length <dbl>, Condition <int>, Morph <int>, x_or_y <chr>,
## #   correct_side <chr>, accuracy <lgl>, age <dbl>
…
## [1] "042018_01-eye_data Samples.txt"
## # A tibble: 28 x 15
##    SID       trial onset offset chosen_side camera_onset webcam_onset
##    <chr>     <int> <dbl>  <dbl> <chr>              <dbl>        <dbl>
##  1 042018_01     1   172    174 L                    119         45.1
##  2 042018_01     2   175    179 R                    119         45.1
##  3 042018_01     3   181    184 L                    119         45.1
##  4 042018_01     4   185    187 L                    119         45.1
##  5 042018_01     5   189    205 L                    119         45.1
##  6 042018_01     6   209    213 L                    119         45.1
##  7 042018_01     7   214    217 L                    119         45.1
##  8 042018_01     8   300    304 R                    119         45.1
##  9 042018_01     9   306    309 L                    119         45.1
## 10 042018_01    10   311    318 R                    119         45.1
## # ... with 18 more rows, and 8 more variables: camera_lag <dbl>,
## #   webcam_length <dbl>, Condition <int>, Morph <int>, x_or_y <chr>,
## #   correct_side <chr>, accuracy <lgl>, age <dbl>
…
## [1] "042018_02-eye_data Samples.txt"
## # A tibble: 28 x 15
##    SID       trial onset offset chosen_side camera_onset webcam_onset
##    <chr>     <int> <dbl>  <dbl> <chr>              <dbl>        <dbl>
##  1 042018_02     1   199    204 L                    113         27.5
##  2 042018_02     2   207    211 R                    113         27.5
##  3 042018_02     3   214    220 L                    113         27.5
##  4 042018_02     4   222    237 R                    113         27.5
##  5 042018_02     5   239    261 L                    113         27.5
##  6 042018_02     6   263    275 L                    113         27.5
##  7 042018_02     7   276    282 L                    113         27.5
##  8 042018_02     8   349    361 L                    113         27.5
##  9 042018_02     9   363    391 R                    113         27.5
## 10 042018_02    10   393    404 L                    113         27.5
## # ... with 18 more rows, and 8 more variables: camera_lag <dbl>,
## #   webcam_length <dbl>, Condition <int>, Morph <int>, x_or_y <chr>,
## #   correct_side <chr>, accuracy <lgl>, age <dbl>
…
## [1] "042018_03-eye_data Samples.txt"
## # A tibble: 28 x 15
##    SID       trial onset offset chosen_side camera_onset webcam_onset
##    <chr>     <int> <dbl>  <dbl> <chr>              <dbl>        <dbl>
##  1 042018_03     1   137    142 L                   91.7         35.0
##  2 042018_03     2   144    148 L                   91.7         35.0
##  3 042018_03     3   150    152 R                   91.7         35.0
##  4 042018_03     4   153    158 R                   91.7         35.0
##  5 042018_03     5   160    162 L                   91.7         35.0
##  6 042018_03     6   164    165 L                   91.7         35.0
##  7 042018_03     7   167    169 R                   91.7         35.0
##  8 042018_03     8   210    215 L                   91.7         35.0
##  9 042018_03     9   216    218 R                   91.7         35.0
## 10 042018_03    10   220    222 L                   91.7         35.0
## # ... with 18 more rows, and 8 more variables: camera_lag <dbl>,
## #   webcam_length <dbl>, Condition <int>, Morph <int>, x_or_y <chr>,
## #   correct_side <chr>, accuracy <lgl>, age <dbl>
…
